Single-Cycle RV32I with Multi-Cycle Multiplier.sim/sim_1/behav/xsim/simulation.vcd
$date
   Fri Dec 19 23:03:36 2025
$end

$version
  2024.1.2
  $dumpfile ("simulation.vcd") 
$end

$timescale
  1ps
$end

$scope module tb_top $end
$var reg 1 ! clk $end
$var reg 1 " reset $end
$var integer 32 # log_file [31:0] $end
$var integer 32 $ cycle_count [31:0] $end
$scope module uut $end
$var wire 1 % clk $end
$var wire 1 & reset $end
$var reg 32 ' pc_address [31:0] $end
$var reg 32 ( pc_next [31:0] $end
$var reg 32 ) pc_plus_4 [31:0] $end
$var reg 32 * instruction [31:0] $end
$var reg 32 + imm_out [31:0] $end
$var reg 32 , data1 [31:0] $end
$var reg 32 - data2 [31:0] $end
$var reg 32 . alu_operand2 [31:0] $end
$var reg 32 / alu_operand_a [31:0] $end
$var reg 32 0 alu_result [31:0] $end
$var reg 32 1 mem_read_data [31:0] $end
$var reg 32 2 reg_write_data [31:0] $end
$var reg 32 3 branch_target [31:0] $end
$var reg 32 4 jump_target [31:0] $end
$var reg 4 5 alu_control [3:0] $end
$var reg 1 6 reg_write $end
$var reg 1 7 alu_src $end
$var reg 1 8 mem_read $end
$var reg 1 9 mem_write $end
$var reg 1 : mem_to_reg $end
$var reg 1 ; branch $end
$var reg 1 < zero $end
$var reg 1 = jump $end
$var reg 1 > jalr $end
$var reg 1 ? lui $end
$var reg 1 @ auipc $end
$var reg 1 A branch_taken $end
$var reg 32 B mult_result [31:0] $end
$var reg 1 C mult_start $end
$var reg 1 D mult_done $end
$var reg 1 E mult_busy $end
$var reg 1 F stall_cpu $end
$var reg 4 G mult_alu_control [3:0] $end
$var reg 1 H mult_instruction $end
$var reg 1 I mult_write_pending $end
$scope module pc $end
$var wire 1 % clk $end
$var wire 1 & reset $end
$var wire 32 J pc_next [31:0] $end
$var reg 32 ' pc_address [31:0] $end
$upscope $end
$scope module imem $end
$var wire 8 K address [7:0] $end
$var reg 32 * instruction [31:0] $end
$upscope $end
$scope module reg_file $end
$var wire 1 % clk $end
$var wire 1 & reset $end
$var wire 1 L write_enable $end
$var wire 5 M rs1 [4:0] $end
$var wire 5 N rs2 [4:0] $end
$var wire 5 O rd [4:0] $end
$var wire 32 P write_data [31:0] $end
$var reg 32 , out_rs1 [31:0] $end
$var reg 32 - out_rs2 [31:0] $end
$scope begin Block19_3 $end
$var reg 32 Q i [31:0] $end
$upscope $end
$scope begin Block26_5 $end
$var reg 32 R i [31:0] $end
$upscope $end
$upscope $end
$scope module imm_gen $end
$var wire 32 S instruction [31:0] $end
$var reg 32 + imm_out [31:0] $end
$var reg 7 T opcode [6:0] $end
$upscope $end
$scope module alu_a_mux $end
$var wire 1 U sel $end
$var wire 32 V in0 [31:0] $end
$var wire 32 W in1 [31:0] $end
$var reg 32 / out [31:0] $end
$upscope $end
$scope module alu_src_mux $end
$var wire 1 X sel $end
$var wire 32 Y in0 [31:0] $end
$var wire 32 Z in1 [31:0] $end
$var reg 32 . out [31:0] $end
$upscope $end
$scope module alu $end
$var wire 32 [ a [31:0] $end
$var wire 32 \ b [31:0] $end
$var wire 4 ] alu_control [3:0] $end
$var wire 32 ^ mult_result [31:0] $end
$var wire 1 _ mult_done $end
$var reg 32 0 result [31:0] $end
$var reg 1 < zero $end
$var reg 1 ` is_multiply_op $end
$upscope $end
$scope module multiplier $end
$var wire 1 % clk $end
$var wire 1 & reset $end
$var wire 1 a start $end
$var wire 32 b a [31:0] $end
$var wire 32 c b [31:0] $end
$var wire 3 d funct3 [2:0] $end
$var reg 32 B result [31:0] $end
$var reg 1 D done $end
$var reg 1 E busy $end
$var reg 6 e current_state $end
$var reg 6 f next_state $end
$var reg 32 g multiplicand [31:0] $end
$var reg 32 h multiplier [31:0] $end
$var reg 64 i product [63:0] $end
$var reg 3 j funct3_reg [2:0] $end
$var reg 1 k sign_a $end
$var reg 1 l sign_b $end
$var reg 1 m result_sign $end
$var reg 32 n a_reg [31:0] $end
$var reg 32 o b_reg [31:0] $end
$var reg 32 p abs_a [31:0] $end
$var reg 32 q abs_b [31:0] $end
$var reg 1 r special_zero_case $end
$var reg 1 s a_neg $end
$var reg 1 t b_neg $end
$var reg 64 u signed_product [63:0] $end
$var reg 64 v final_product [63:0] $end
$scope function get_abs $end
$var reg 32 w get_abs [31:0] $end
$var reg 32 x val [31:0] $end
$var reg 1 y is_signed $end
$upscope $end
$upscope $end
$scope module mult_ctrl $end
$var wire 1 % clk $end
$var wire 1 & reset $end
$var wire 7 z opcode [6:0] $end
$var wire 3 { funct3 [2:0] $end
$var wire 7 | funct7 [6:0] $end
$var wire 1 } mult_done $end
$var wire 1 ~ mult_busy $end
$var reg 1 C mult_start $end
$var reg 1 F stall_cpu $end
$var reg 4 G alu_control_out [3:0] $end
$var reg 1 I mult_write_pending $end
$var reg 2 !! current_state [1:0] $end
$var reg 2 "! next_state [1:0] $end
$var reg 1 #! pending_write $end
$var reg 1 $! mult_detected $end
$var reg 4 %! alu_control_reg [3:0] $end
$upscope $end
$scope module dmem $end
$var wire 1 % clk $end
$var wire 1 &! mem_read $end
$var wire 1 '! mem_write $end
$var wire 3 (! funct3 [2:0] $end
$var wire 32 )! address [31:0] $end
$var wire 32 *! write_data [31:0] $end
$var reg 32 1 read_data [31:0] $end
$scope begin Block13_17 $end
$var reg 32 +! i [31:0] $end
$upscope $end
$upscope $end
$scope module wb_mux $end
$var wire 1 ,! mem_to_reg $end
$var wire 1 -! jump $end
$var wire 1 .! jalr $end
$var wire 1 /! lui $end
$var wire 1 0! auipc $end
$var wire 32 1! alu_result [31:0] $end
$var wire 32 2! mem_data [31:0] $end
$var wire 32 3! pc_plus_4 [31:0] $end
$var wire 32 4! imm_out [31:0] $end
$var wire 32 5! pc_address [31:0] $end
$var reg 32 2 write_data [31:0] $end
$upscope $end
$scope module control_unit $end
$var wire 7 6! opcode [6:0] $end
$var wire 3 7! funct3 [2:0] $end
$var wire 7 8! funct7 [6:0] $end
$var wire 4 9! mult_alu_control [3:0] $end
$var wire 1 :! mult_instruction $end
$var reg 1 6 reg_write $end
$var reg 1 7 alu_src $end
$var reg 1 8 mem_read $end
$var reg 1 9 mem_write $end
$var reg 1 : mem_to_reg $end
$var reg 1 ; branch $end
$var reg 1 = jump $end
$var reg 1 > jalr $end
$var reg 1 ? lui $end
$var reg 1 @ auipc $end
$var reg 4 5 alu_control [3:0] $end
$var reg 2 ;! alu_op [1:0] $end
$var reg 1 <! mult_instr_detected $end
$scope module main_ctrl $end
$var wire 7 6! opcode [6:0] $end
$var wire 7 8! funct7 [6:0] $end
$var reg 1 6 reg_write $end
$var reg 1 7 alu_src $end
$var reg 1 8 mem_read $end
$var reg 1 9 mem_write $end
$var reg 1 : mem_to_reg $end
$var reg 1 ; branch $end
$var reg 1 = jump $end
$var reg 1 > jalr $end
$var reg 1 ? lui $end
$var reg 1 @ auipc $end
$var reg 2 ;! alu_op [1:0] $end
$var reg 1 <! mult_instruction $end
$upscope $end
$scope module alu_ctrl $end
$var wire 2 =! alu_op [1:0] $end
$var wire 3 7! funct3 [2:0] $end
$var wire 7 8! funct7 [6:0] $end
$var wire 4 9! mult_alu_control [3:0] $end
$var wire 1 :! mult_instruction $end
$var wire 7 6! opcode [6:0] $end
$var reg 4 5 alu_control [3:0] $end
$upscope $end
$upscope $end
$upscope $end
$scope begin Block52_26 $end
$var reg 32 >! i [31:0] $end
$upscope $end
$upscope $end
$enddefinitions $end

#0
$dumpvars
0!
b0 !!
1"
b0 "!
b11111111111111111011000111100000 #
0#!
b0 $
0$!
0%
b10 %!
1&
0&!
b0 '
0'!
b100 (
b0 (!
b100 )
b11111111111111111111111111111111 )!
b11111111111100000000000010010011 *
b0 *!
b11111111111111111111111111111111 +
b10000000000 +!
b0 ,
0,!
b0 -
0-!
b11111111111111111111111111111111 .
0.!
b0 /
0/!
b11111111111111111111111111111111 0
00!
b0 1
b11111111111111111111111111111111 1!
b11111111111111111111111111111111 2
b0 2!
b11111111111111111111111111111111 3
b100 3!
b11111111111111111111111111111111 4
b11111111111111111111111111111111 4!
b10 5
b0 5!
16
b10011 6!
17
b0 7!
08
b1111111 8!
09
b10 9!
0:
0:!
0;
b10 ;!
0<
0<!
0=
b10 =!
0>
b0 >!
0?
0@
0A
b0 B
0C
0D
0E
0F
b10 G
0H
0I
b100 J
b0 K
1L
b0 M
b11111 N
b1 O
b11111111111111111111111111111111 P
b100000 Q
b100000 R
b11111111111100000000000010010011 S
b10011 T
0U
b0 V
b0 W
1X
b0 Y
b11111111111111111111111111111111 Z
b0 [
b11111111111111111111111111111111 \
b10 ]
b0 ^
0_
0`
0a
b0 b
b0 c
b0 d
b0 e
b0 f
b0 g
b0 h
b0 i
b0 j
1k
1l
0m
b0 n
b0 o
b0 p
b0 q
1r
0s
0t
b0 u
b0 v
b0 w
b0 x
1y
b10011 z
b0 {
b1111111 |
0}
0~
$end

#5000
1!
1%
b100000 R

#10000
0!
0%

#15000
1!
1%
b100000 R

#20000
0!
0"
0%
0&

#25000
1!
b1 $
1%
b100 '
b1000 (
b1000 )
b11111111111100000000000100010011 *
b11 3
b1000 3!
b11 4
b100 5!
b1000 J
b1 K
b10 O
b11111111111100000000000100010011 S
b100 W

#30000
0!
0%

#35000
1!
b10 $
1%
b1000 '
b1100 (
b1100 )
b10000000000000000000000000000000 )!
b10000000000000000000001000110111 *
b10000000000000000000000000000000 +
b10000000000000000000000000000000 .
1/!
b10000000000000000000000000000000 0
b10000000000000000000000000000000 1!
b10000000000000000000000000000000 2
b10000000000000000000000000001000 3
b1100 3!
b10000000000000000000000000001000 4
b10000000000000000000000000000000 4!
b11 5
b1000 5!
16
b110111 6!
17
b1000000 8!
b11 ;!
b11 =!
1?
b1100 J
b10 K
b0 N
b100 O
b10000000000000000000000000000000 P
b10000000000000000000001000110111 S
b110111 T
b1000 W
b10000000000000000000000000000000 Z
b10000000000000000000000000000000 \
b11 ]
b110111 z
b1000000 |

#40000
0!
0%

#45000
1!
b11 $
1%
b1100 '
b10000 (
b10000 )
b100000001000010011 *
b0 +
b10000000000000000000000000000000 ,
b0 .
b10000000000000000000000000000000 /
0/!
b1100 3
b10000 3!
b1100 4
b0 4!
b10 5
b1100 5!
16
b10011 6!
17
b0 8!
b10 ;!
b10 =!
0?
b10000 J
b11 K
b100 M
b100000001000010011 S
b10011 T
b10000000000000000000000000000000 V
b1100 W
b0 Z
b10000000000000000000000000000000 [
b0 \
b10 ]
b10000000000000000000000000000000 b
b10011 z
b0 |

#50000
0!
0%

#55000
1!
b1 "!
b100 $
1$!
1%
b10000 '
b10100 (
b10100 )
b10010100100000001010110011 *
b100101 +
b110101 3
b10100 3!
b110101 4
b100101 4!
b10000 5!
16
b110011 6!
07
b1 8!
1:!
b10 ;!
1<!
1C
1H
b10100 J
b100 K
b101 N
b101 O
b10010100100000001010110011 S
b110011 T
b10000 W
0X
b100101 Z
1a
b1 f
b110011 z
b1 |

#60000
0!
0%

#65000
1!
b1 !!
b101 $
0$!
1%
b1010 %!
b10100 '
b10100 (
b11000 )
b11111111111111111111111111111111 )!
b11111111111100000000000010010011 *
b11111111111111111111111111111111 +
b0 ,
b11111111111111111111111111111111 .
b0 /
b11111111111111111111111111111111 0
b11111111111111111111111111111111 1!
b11111111111111111111111111111111 2
b10011 3
b11000 3!
b10011 4
b11111111111111111111111111111111 4!
b10100 5!
16
b10011 6!
17
b1111111 8!
b1010 9!
0:!
b10 ;!
0<!
0C
1E
1F
b1010 G
0H
b10100 J
b101 K
0L
b0 M
b11111 N
b1 O
b11111111111111111111111111111111 P
b11111111111100000000000010010011 S
b10011 T
b0 V
b10100 W
1X
b11111111111111111111111111111111 Z
b0 [
b11111111111111111111111111111111 \
0a
b0 b
b1 e
b10 f
b10000000000000000000000000000000 n
b10000000000000000000000000000000 p
b10000000000000000000000000000000 w
b10000000000000000000000000000000 x
b10011 z
b1111111 |
1~

#70000
0!
0%

#75000
1!
b110 $
1%
b10 e
b11 f

#80000
0!
0%

#85000
1!
b111 $
1%
b11 e
b100 f

#90000
0!
0%

#95000
1!
b1000 $
1%
b100 e
b101 f

#100000
0!
0%

#105000
1!
b1001 $
1%
b101 e
b110 f

#110000
0!
0%

#115000
1!
b1010 $
1%
b110 e
b111 f

#120000
0!
0%

#125000
1!
b1011 $
1%
b111 e
b1000 f

#130000
0!
0%

#135000
1!
b1100 $
1%
b1000 e
b1001 f

#140000
0!
0%

#145000
1!
b1101 $
1%
b1001 e
b1010 f

#150000
0!
0%

#155000
1!
b1110 $
1%
b1010 e
b1011 f

#160000
0!
0%

#165000
1!
b1111 $
1%
b1011 e
b1100 f

#170000
0!
0%

#175000
1!
b10000 $
1%
b1100 e
b1101 f

#180000
0!
0%

#185000
1!
b10001 $
1%
b1101 e
b1110 f

#190000
0!
0%

#195000
1!
b10010 $
1%
b1110 e
b1111 f

#200000
0!
0%

#205000
1!
b10011 $
1%
b1111 e
b10000 f

#210000
0!
0%

#215000
1!
b10100 $
1%
b10000 e
b10001 f

#220000
0!
0%

#225000
1!
b10101 $
1%
b10001 e
b10010 f

#230000
0!
0%

#235000
1!
b10110 $
1%
b10010 e
b10011 f

#240000
0!
0%

#245000
1!
b10111 $
1%
b10011 e
b10100 f

#250000
0!
0%

#255000
1!
b11000 $
1%
b10100 e
b10101 f

#260000
0!
0%

#265000
1!
b11001 $
1%
b10101 e
b10110 f

#270000
0!
0%

#275000
1!
b11010 $
1%
b10110 e
b10111 f

#280000
0!
0%

#285000
1!
b11011 $
1%
b10111 e
b11000 f

#290000
0!
0%

#295000
1!
b11100 $
1%
b11000 e
b11001 f

#300000
0!
0%

#305000
1!
b11101 $
1%
b11001 e
b11010 f

#310000
0!
0%

#315000
1!
b11110 $
1%
b11010 e
b11011 f

#320000
0!
0%

#325000
1!
b11111 $
1%
b11011 e
b11100 f

#330000
0!
0%

#335000
1!
b100000 $
1%
b11100 e
b11101 f

#340000
0!
0%

#345000
1!
b100001 $
1%
b11101 e
b11110 f

#350000
0!
0%

#355000
1!
b100010 $
1%
b11110 e
b11111 f

#360000
0!
0%

#365000
1!
b100011 $
1%
b11111 e
b100000 f

#370000
0!
0%

#375000
1!
b100100 $
1%
b100000 e
b100001 f

#380000
0!
0%

#385000
1!
b10 "!
b100101 $
1%
1D
0E
1_
b100001 e
b0 f
1}
0~

#390000
0!
0%

#395000
1!
b10 !!
b0 "!
1#!
b100110 $
1%
0D
1I
1L
0_
b0 e
0}

#400000
0!
0%

#405000
1!
b0 !!
0#!
b100111 $
1%
b11000 (
b10 9!
0F
b10 G
0I
b11000 J

#410000
0!
0%

#415000
1!
b1 "!
b101000 $
1$!
1%
b11000 '
b11100 (
b110 (!
b11100 )
b0 )!
b10011100001110000010110011 *
b100111 +
b11111111111111111111111111111111 ,
b0 .
b11111111111111111111111111111111 /
b0 0
b0 1!
b0 2
b111111 3
b11100 3!
b111111 4
b100111 4!
b1010 5
b11000 5!
16
b110011 6!
07
b110 7!
b1 8!
b1010 9!
1:!
b10 ;!
1<!
1C
b1010 G
1H
b11100 J
b110 K
b1 M
b111 N
b0 P
b10011100001110000010110011 S
b110011 T
b11111111111111111111111111111111 V
b11000 W
0X
b100111 Z
b11111111111111111111111111111111 [
b0 \
b1010 ]
1`
1a
b11111111111111111111111111111111 b
b110 d
b1 f
b110011 z
b110 {
b1 |

#420000
0!
0%

#425000
1!
b1 !!
b101001 $
0$!
1%
b11100 '
b11100 (
b0 (!
b100000 )
b10000000000000000000000000000000 )!
b10000000000000000000001000110111 *
b10000000000000000000000000000000 +
b0 ,
b10000000000000000000000000000000 .
b0 /
1/!
b10000000000000000000000000000000 0
b10000000000000000000000000000000 1!
b10000000000000000000000000000000 2
b10000000000000000000000000011100 3
b100000 3!
b10000000000000000000000000011100 4
b10000000000000000000000000000000 4!
b11 5
b11100 5!
16
b110111 6!
17
b0 7!
b1000000 8!
0:!
b11 ;!
0<!
b11 =!
1?
0C
1E
1F
0H
b11100 J
b111 K
0L
b0 M
b0 N
b100 O
b10000000000000000000000000000000 P
b10000000000000000000001000110111 S
b110111 T
b0 V
b11100 W
1X
b10000000000000000000000000000000 Z
b0 [
b10000000000000000000000000000000 \
b11 ]
0`
0a
b0 b
b0 d
b1 e
b10 f
b10000000000000000000000000000000 g
b110 j
b11111111111111111111111111111111 n
b1 p
1s
b1 w
b11111111111111111111111111111111 x
b110111 z
b0 {
b1000000 |
1~

#430000
0!
0%

#435000
1!
b101010 $
1%
b10 e
b11 f

#440000
0!
0%

#445000
1!
b101011 $
1%
b11 e
b100 f

#450000
0!
0%

#455000
1!
b101100 $
1%
b100 e
b101 f

#460000
0!
0%

#465000
1!
b101101 $
1%
b101 e
b110 f

#470000
0!
0%

#475000
1!
b101110 $
1%
b110 e
b111 f

#480000
0!
0%

#485000
1!
b101111 $
1%
b111 e
b1000 f

#490000
0!
0%

#495000
1!
b110000 $
1%
b1000 e
b1001 f

#500000
0!
0%

#505000
1!
b110001 $
1%
b1001 e
b1010 f

#510000
0!
0%

#515000
1!
b110010 $
1%
b1010 e
b1011 f

#520000
0!
0%

#525000
1!
b110011 $
1%
b1011 e
b1100 f

#530000
0!
0%

#535000
1!
b110100 $
1%
b1100 e
b1101 f

#540000
0!
0%

#545000
1!
b110101 $
1%
b1101 e
b1110 f

#550000
0!
0%

#555000
1!
b110110 $
1%
b1110 e
b1111 f

#560000
0!
0%

#565000
1!
b110111 $
1%
b1111 e
b10000 f

#570000
0!
0%

#575000
1!
b111000 $
1%
b10000 e
b10001 f

#580000
0!
0%

#585000
1!
b111001 $
1%
b10001 e
b10010 f

#590000
0!
0%

#595000
1!
b111010 $
1%
b10010 e
b10011 f

#600000
0!
0%

#605000
1!
b111011 $
1%
b10011 e
b10100 f

#610000
0!
0%

#615000
1!
b111100 $
1%
b10100 e
b10101 f

#620000
0!
0%

#625000
1!
b111101 $
1%
b10101 e
b10110 f

#630000
0!
0%

#635000
1!
b111110 $
1%
b10110 e
b10111 f

#640000
0!
0%

#645000
1!
b111111 $
1%
b10111 e
b11000 f

#650000
0!
0%

#655000
1!
b1000000 $
1%
b11000 e
b11001 f

#660000
0!
0%

#665000
1!
b1000001 $
1%
b11001 e
b11010 f

#670000
0!
0%

#675000
1!
b1000010 $
1%
b11010 e
b11011 f

#680000
0!
0%

#685000
1!
b1000011 $
1%
b11011 e
b11100 f

#690000
0!
0%

#695000
1!
b1000100 $
1%
b11100 e
b11101 f

#700000
0!
0%

#705000
1!
b1000101 $
1%
b11101 e
b11110 f

#710000
0!
0%

#715000
1!
b1000110 $
1%
b11110 e
b11111 f

#720000
0!
0%

#725000
1!
b1000111 $
1%
b11111 e
b100000 f

#730000
0!
0%

#735000
1!
b1001000 $
1%
b100000 e
b100001 f

#740000
0!
0%

#745000
1!
b10 "!
b1001001 $
1%
1D
0E
1_
b100001 e
b0 f
1}
0~

#750000
0!
0%

#755000
1!
b10 !!
b0 "!
1#!
b1001010 $
1%
0D
1I
1L
0_
b0 e
0}

#760000
0!
0%

#765000
1!
b0 !!
0#!
b1001011 $
1%
b100000 (
b10 9!
0F
b10 G
0I
b100000 J

#770000
0!
0%

#775000
1!
b1001100 $
1%
b100000 '
b100100 (
b100100 )
b100000001000010011 *
b0 +
b10000000000000000000000000000000 ,
b0 .
b10000000000000000000000000000000 /
0/!
b100000 3
b100100 3!
b100000 4
b0 4!
b10 5
b100000 5!
16
b10011 6!
17
b0 8!
b10 ;!
b10 =!
0?
b100100 J
b1000 K
b100 M
b100000001000010011 S
b10011 T
b10000000000000000000000000000000 V
b100000 W
b0 Z
b10000000000000000000000000000000 [
b0 \
b10 ]
b10000000000000000000000000000000 b
b10011 z
b0 |

#780000
0!
0%

#785000
1!
b1001101 $
1%
b100100 '
b101000 (
b101000 )
b11111111111111111111111111111111 )!
b11111111111100000000001010010011 *
b11111111111111111111111111111111 +
b0 ,
b11111111111111111111111111111111 .
b0 /
b11111111111111111111111111111111 0
b11111111111111111111111111111111 1!
b11111111111111111111111111111111 2
b100011 3
b101000 3!
b100011 4
b11111111111111111111111111111111 4!
b100100 5!
16
17
b1111111 8!
b10 ;!
b101000 J
b1001 K
b0 M
b11111 N
b101 O
b11111111111111111111111111111111 P
b11111111111100000000001010010011 S
b0 V
b100100 W
b11111111111111111111111111111111 Z
b0 [
b11111111111111111111111111111111 \
b0 b
b1111111 |

#790000
0!
0%

#795000
1!
b1 "!
b1001110 $
1$!
1%
b101000 '
b101100 (
b101100 )
b0 )!
b10010100100000001010110011 *
b11111111111111111111111111111111 *!
b100101 +
b10000000000000000000000000000000 ,
b11111111111111111111111111111111 -
b10000000000000000000000000000000 /
b0 0
b0 1!
b0 2
b1001101 3
b101100 3!
b1001101 4
b100101 4!
b1010 5
b101000 5!
16
b110011 6!
07
b1 8!
b1010 9!
1:!
b10 ;!
1<!
1C
b1010 G
1H
b101100 J
b1010 K
b100 M
b101 N
b0 P
b10010100100000001010110011 S
b110011 T
b10000000000000000000000000000000 V
b101000 W
0X
b11111111111111111111111111111111 Y
b100101 Z
b10000000000000000000000000000000 [
b1010 ]
1`
1a
b10000000000000000000000000000000 b
b11111111111111111111111111111111 c
b1 f
b110011 z
b1 |

#800000
0!
0%

#805000
1!
b1 !!
b1001111 $
0$!
1%
b101100 '
b101100 (
b110000 )
b1111111111100000000000000000000 )!
b1111111111100000000010000110111 *
b0 *!
b1111111111100000000000000000000 +
b0 ,
b0 -
b1111111111100000000000000000000 .
b0 /
1/!
b1111111111100000000000000000000 0
b1111111111100000000000000000000 1!
b1111111111100000000000000000000 2
b1111111111100000000000000101100 3
b110000 3!
b1111111111100000000000000101100 4
b1111111111100000000000000000000 4!
b11 5
b101100 5!
16
b110111 6!
17
b111111 8!
0:!
b11 ;!
0<!
b11 =!
1?
0C
1E
1F
0H
b101100 J
b1011 K
0L
b0 M
b11111 N
b1000 O
b1111111111100000000000000000000 P
b1111111111100000000010000110111 S
b110111 T
b0 V
b101100 W
1X
b0 Y
b1111111111100000000000000000000 Z
b0 [
b1111111111100000000000000000000 \
b11 ]
0`
0a
b0 b
b0 c
b1 e
b10 f
b1 g
b0 j
b10000000000000000000000000000000 n
b11111111111111111111111111111111 o
b10000000000000000000000000000000 p
b1 q
0r
1t
b1 w
b11111111111111111111111111111111 x
b110111 z
b111111 |
1~

#810000
0!
0%

#815000
1!
b1010000 $
1%
b10 e
b11 f

#820000
0!
0%

#825000
1!
b1010001 $
1%
b11 e
b100 f

#830000
0!
0%

#835000
1!
b1010010 $
1%
b100 e
b101 f

#840000
0!
0%

#845000
1!
b1010011 $
1%
b101 e
b110 f

#850000
0!
0%

#855000
1!
b1010100 $
1%
b110 e
b111 f

#860000
0!
0%

#865000
1!
b1010101 $
1%
b111 e
b1000 f

#870000
0!
0%

#875000
1!
b1010110 $
1%
b1000 e
b1001 f

#880000
0!
0%

#885000
1!
b1010111 $
1%
b1001 e
b1010 f

#890000
0!
0%

#895000
1!
b1011000 $
1%
b1010 e
b1011 f

#900000
0!
0%

#905000
1!
b1011001 $
1%
b1011 e
b1100 f

#910000
0!
0%

#915000
1!
b1011010 $
1%
b1100 e
b1101 f

#920000
0!
0%

#925000
1!
b1011011 $
1%
b1101 e
b1110 f

#930000
0!
0%

#935000
1!
b1011100 $
1%
b1110 e
b1111 f

#940000
0!
0%

#945000
1!
b1011101 $
1%
b1111 e
b10000 f

#950000
0!
0%

#955000
1!
b1011110 $
1%
b10000 e
b10001 f

#960000
0!
0%

#965000
1!
b1011111 $
1%
b10001 e
b10010 f

#970000
0!
0%

#975000
1!
b1100000 $
1%
b10010 e
b10011 f

#980000
0!
0%

#985000
1!
b1100001 $
1%
b10011 e
b10100 f

#990000
0!
0%

#995000
1!
b1100010 $
1%
b10100 e
b10101 f
