Single-Cycle RV32I with Multi-Cycle Multiplier.sim/sim_1/behav/xsim/simulation.vcd
$date
   Tue Dec 23 01:42:45 2025
$end

$version
  2024.1.2
  $dumpfile ("simulation.vcd") 
$end

$timescale
  1ps
$end

$scope module tb_top $end
$var reg 1 ! clk $end
$var reg 1 " reset $end
$var integer 32 # log_file [31:0] $end
$var integer 32 $ cycle_count [31:0] $end
$scope module uut $end
$var wire 1 % clk $end
$var wire 1 & reset $end
$var reg 32 ' pc_address [31:0] $end
$var reg 32 ( pc_next [31:0] $end
$var reg 32 ) pc_plus_4 [31:0] $end
$var reg 32 * instruction [31:0] $end
$var reg 32 + imm_out [31:0] $end
$var reg 32 , data1 [31:0] $end
$var reg 32 - data2 [31:0] $end
$var reg 32 . alu_operand2 [31:0] $end
$var reg 32 / alu_operand_a [31:0] $end
$var reg 32 0 alu_result [31:0] $end
$var reg 32 1 mem_read_data [31:0] $end
$var reg 32 2 reg_write_data [31:0] $end
$var reg 32 3 branch_target [31:0] $end
$var reg 32 4 jump_target [31:0] $end
$var reg 4 5 alu_control [3:0] $end
$var reg 1 6 reg_write $end
$var reg 1 7 alu_src $end
$var reg 1 8 mem_read $end
$var reg 1 9 mem_write $end
$var reg 1 : mem_to_reg $end
$var reg 1 ; branch $end
$var reg 1 < zero $end
$var reg 1 = jump $end
$var reg 1 > jalr $end
$var reg 1 ? lui $end
$var reg 1 @ auipc $end
$var reg 1 A branch_taken $end
$var reg 32 B mult_result [31:0] $end
$var reg 1 C mult_start $end
$var reg 1 D mult_done $end
$var reg 1 E mult_busy $end
$var reg 1 F stall_cpu $end
$var reg 4 G mult_alu_control [3:0] $end
$var reg 1 H mult_instruction $end
$var reg 1 I mult_write_pending $end
$scope module pc $end
$var wire 1 % clk $end
$var wire 1 & reset $end
$var wire 32 J pc_next [31:0] $end
$var reg 32 ' pc_address [31:0] $end
$upscope $end
$scope module imem $end
$var wire 8 K address [7:0] $end
$var reg 32 * instruction [31:0] $end
$upscope $end
$scope module reg_file $end
$var wire 1 % clk $end
$var wire 1 & reset $end
$var wire 1 L write_enable $end
$var wire 5 M rs1 [4:0] $end
$var wire 5 N rs2 [4:0] $end
$var wire 5 O rd [4:0] $end
$var wire 32 P write_data [31:0] $end
$var reg 32 , out_rs1 [31:0] $end
$var reg 32 - out_rs2 [31:0] $end
$scope begin Block19_3 $end
$var reg 32 Q i [31:0] $end
$upscope $end
$scope begin Block26_5 $end
$var reg 32 R i [31:0] $end
$upscope $end
$upscope $end
$scope module imm_gen $end
$var wire 32 S instruction [31:0] $end
$var reg 32 + imm_out [31:0] $end
$var reg 7 T opcode [6:0] $end
$upscope $end
$scope module alu_a_mux $end
$var wire 1 U sel $end
$var wire 32 V in0 [31:0] $end
$var wire 32 W in1 [31:0] $end
$var reg 32 / out [31:0] $end
$upscope $end
$scope module alu_src_mux $end
$var wire 1 X sel $end
$var wire 32 Y in0 [31:0] $end
$var wire 32 Z in1 [31:0] $end
$var reg 32 . out [31:0] $end
$upscope $end
$scope module alu $end
$var wire 32 [ a [31:0] $end
$var wire 32 \ b [31:0] $end
$var wire 4 ] alu_control [3:0] $end
$var wire 32 ^ mult_result [31:0] $end
$var wire 1 _ mult_done $end
$var reg 32 0 result [31:0] $end
$var reg 1 < zero $end
$var reg 1 ` is_multiply_op $end
$upscope $end
$scope module multiplier $end
$var wire 1 % clk $end
$var wire 1 & reset $end
$var wire 1 a start $end
$var wire 32 b a [31:0] $end
$var wire 32 c b [31:0] $end
$var wire 3 d funct3 [2:0] $end
$var reg 32 B result [31:0] $end
$var reg 1 D done $end
$var reg 1 E busy $end
$var reg 6 e current_state [5:0] $end
$var reg 6 f next_state [5:0] $end
$var reg 32 g multiplicand [31:0] $end
$var reg 32 h multiplier [31:0] $end
$var reg 64 i product [63:0] $end
$var reg 3 j funct3_reg [2:0] $end
$var reg 1 k sign_a $end
$var reg 1 l sign_b $end
$var reg 1 m result_sign $end
$var reg 32 n a_reg [31:0] $end
$var reg 32 o b_reg [31:0] $end
$var reg 1 p sign_a_in $end
$var reg 1 q sign_b_in $end
$var reg 32 r abs_a_in [31:0] $end
$var reg 32 s abs_b_in [31:0] $end
$var reg 1 t special_zero_case $end
$var reg 1 u a_neg $end
$var reg 1 v b_neg $end
$var reg 64 w signed_product [63:0] $end
$var reg 64 x final_product [63:0] $end
$scope function get_abs $end
$var reg 32 y get_abs [31:0] $end
$var reg 32 z val [31:0] $end
$var reg 1 { is_signed $end
$upscope $end
$upscope $end
$scope module mult_ctrl $end
$var wire 1 % clk $end
$var wire 1 & reset $end
$var wire 7 | opcode [6:0] $end
$var wire 3 } funct3 [2:0] $end
$var wire 7 ~ funct7 [6:0] $end
$var wire 1 !! mult_done $end
$var wire 1 "! mult_busy $end
$var reg 1 C mult_start $end
$var reg 1 F stall_cpu $end
$var reg 4 G alu_control_out [3:0] $end
$var reg 1 I mult_write_pending $end
$var reg 2 #! current_state [1:0] $end
$var reg 2 $! next_state [1:0] $end
$var reg 1 %! pending_write $end
$var reg 1 &! mult_detected $end
$var reg 4 '! alu_control_reg [3:0] $end
$upscope $end
$scope module dmem $end
$var wire 1 % clk $end
$var wire 1 (! mem_read $end
$var wire 1 )! mem_write $end
$var wire 3 *! funct3 [2:0] $end
$var wire 32 +! address [31:0] $end
$var wire 32 ,! write_data [31:0] $end
$var reg 32 1 read_data [31:0] $end
$scope begin Block13_18 $end
$var reg 32 -! i [31:0] $end
$upscope $end
$upscope $end
$scope module wb_mux $end
$var wire 1 .! mem_to_reg $end
$var wire 1 /! jump $end
$var wire 1 0! jalr $end
$var wire 1 1! lui $end
$var wire 1 2! auipc $end
$var wire 32 3! alu_result [31:0] $end
$var wire 32 4! mem_data [31:0] $end
$var wire 32 5! pc_plus_4 [31:0] $end
$var wire 32 6! imm_out [31:0] $end
$var wire 32 7! pc_address [31:0] $end
$var reg 32 2 write_data [31:0] $end
$upscope $end
$scope module control_unit $end
$var wire 7 8! opcode [6:0] $end
$var wire 3 9! funct3 [2:0] $end
$var wire 7 :! funct7 [6:0] $end
$var wire 4 ;! mult_alu_control [3:0] $end
$var wire 1 <! mult_instruction $end
$var reg 1 6 reg_write $end
$var reg 1 7 alu_src $end
$var reg 1 8 mem_read $end
$var reg 1 9 mem_write $end
$var reg 1 : mem_to_reg $end
$var reg 1 ; branch $end
$var reg 1 = jump $end
$var reg 1 > jalr $end
$var reg 1 ? lui $end
$var reg 1 @ auipc $end
$var reg 4 5 alu_control [3:0] $end
$var reg 2 =! alu_op [1:0] $end
$var reg 1 >! mult_instr_detected $end
$scope module main_ctrl $end
$var wire 7 8! opcode [6:0] $end
$var wire 7 :! funct7 [6:0] $end
$var reg 1 6 reg_write $end
$var reg 1 7 alu_src $end
$var reg 1 8 mem_read $end
$var reg 1 9 mem_write $end
$var reg 1 : mem_to_reg $end
$var reg 1 ; branch $end
$var reg 1 = jump $end
$var reg 1 > jalr $end
$var reg 1 ? lui $end
$var reg 1 @ auipc $end
$var reg 2 =! alu_op [1:0] $end
$var reg 1 >! mult_instruction $end
$upscope $end
$scope module alu_ctrl $end
$var wire 2 ?! alu_op [1:0] $end
$var wire 3 9! funct3 [2:0] $end
$var wire 7 :! funct7 [6:0] $end
$var wire 4 ;! mult_alu_control [3:0] $end
$var wire 1 <! mult_instruction $end
$var wire 7 8! opcode [6:0] $end
$var reg 4 5 alu_control [3:0] $end
$upscope $end
$upscope $end
$upscope $end
$scope begin Block52_27 $end
$var reg 32 @! i [31:0] $end
$upscope $end
$upscope $end
$enddefinitions $end

#0
$dumpvars
0!
0!!
1"
0"!
b11111111111111111011000111100000 #
b0 #!
b0 $
b0 $!
0%
0%!
1&
0&!
b0 '
b10 '!
b100 (
0(!
b100 )
0)!
b11111111100100000000000010010011 *
b0 *!
b11111111111111111111111111111001 +
b11111111111111111111111111111001 +!
b0 ,
b0 ,!
b0 -
b10000000000 -!
b11111111111111111111111111111001 .
0.!
b0 /
0/!
b11111111111111111111111111111001 0
00!
b0 1
01!
b11111111111111111111111111111001 2
02!
b11111111111111111111111111111001 3
b11111111111111111111111111111001 3!
b11111111111111111111111111111001 4
b0 4!
b10 5
b100 5!
16
b11111111111111111111111111111001 6!
17
b0 7!
08
b10011 8!
09
b0 9!
0:
b1111111 :!
0;
b10 ;!
0<
0<!
0=
b10 =!
0>
0>!
0?
b10 ?!
0@
b0 @!
0A
b0 B
0C
0D
0E
0F
b10 G
0H
0I
b100 J
b0 K
1L
b0 M
b11001 N
b1 O
b11111111111111111111111111111001 P
b100000 Q
b100000 R
b11111111100100000000000010010011 S
b10011 T
0U
b0 V
b0 W
1X
b0 Y
b11111111111111111111111111111001 Z
b0 [
b11111111111111111111111111111001 \
b10 ]
b0 ^
0_
0`
0a
b0 b
b0 c
b0 d
b0 e
b0 f
b0 g
b0 h
b0 i
b0 j
1k
1l
0m
b0 n
b0 o
1p
1q
b0 r
b0 s
1t
0u
0v
b0 w
b0 x
b0 y
b0 z
1{
b10011 |
b0 }
b1111111 ~
$end

#5000
1!
1%
b100000 R

#10000
0!
0%

#15000
1!
1%
b100000 R

#20000
0!
0"
0%
0&

#25000
1!
b1 $
1%
b100 '
b1000 (
b1000 )
b10100000000000100010011 *
b101 +
b101 +!
b101 .
b101 0
b101 2
b1001 3
b101 3!
b1001 4
b1000 5!
16
b101 6!
17
b100 7!
b0 :!
b10 =!
b1000 J
b1 K
b101 N
b10 O
b101 P
b10100000000000100010011 S
b100 W
b101 Z
b101 \
b0 ~

#30000
0!
0%

#35000
1!
b10 $
1%
b1000 '
b1100 (
b1100 )
b11111111111100000000000110010011 *
b11111111111111111111111111111111 +
b11111111111111111111111111111111 +!
b11111111111111111111111111111111 .
b11111111111111111111111111111111 0
b11111111111111111111111111111111 2
b111 3
b11111111111111111111111111111111 3!
b111 4
b1100 5!
16
b11111111111111111111111111111111 6!
17
b1000 7!
b1111111 :!
b10 =!
b1100 J
b10 K
b11111 N
b11 O
b11111111111111111111111111111111 P
b11111111111100000000000110010011 S
b1000 W
b11111111111111111111111111111111 Z
b11111111111111111111111111111111 \
b1111111 ~

#40000
0!
0%

#45000
1!
b11 $
1%
b1100 '
b10000 (
b10000 )
b100000000001000010011 *
b1 +
b1 +!
b11111111111111111111111111111001 ,!
b11111111111111111111111111111001 -
b1 .
b1 0
b1 2
b1101 3
b1 3!
b1101 4
b10000 5!
16
b1 6!
17
b1100 7!
b0 :!
b10 =!
b10000 J
b11 K
b1 N
b100 O
b1 P
b100000000001000010011 S
b1100 W
b11111111111111111111111111111001 Y
b1 Z
b1 \
b11111111111111111111111111111001 c
b111 s
b111 y
b11111111111111111111111111111001 z
b0 ~

#50000
0!
0%

#55000
1!
b100 $
1%
b10000 '
b10100 (
b10100 )
b1010010011 *
b0 +
b0 +!
b0 ,!
b0 -
b0 .
b0 0
b0 2
b10000 3
b0 3!
b10000 4
b10100 5!
b0 6!
b10000 7!
1<
b10100 J
b100 K
b0 N
b101 O
b0 P
b1010010011 S
b10000 W
b0 Y
b0 Z
b0 \
b0 c
b0 s
b0 y
b0 z

#60000
0!
0%

#65000
1!
b101 $
1%
b10100 '
b11000 (
b11000 )
b111111100000000001100010011 *
b1111111 +
b1111111 +!
b1111111 .
b1111111 0
b1111111 2
b10010011 3
b1111111 3!
b10010011 4
b11000 5!
16
b1111111 6!
17
b10100 7!
b11 :!
0<
b10 =!
b11000 J
b101 K
b11111 N
b110 O
b1111111 P
b111111100000000001100010011 S
b10100 W
b1111111 Z
b1111111 \
b11 ~

#70000
0!
0%

#75000
1!
b110 $
1%
b11000 '
b11100 (
b11100 )
b11111000000000000000001110010011 *
b11111111111111111111111110000000 +
b11111111111111111111111110000000 +!
b11111111111111111111111110000000 .
b11111111111111111111111110000000 0
b11111111111111111111111110000000 2
b11111111111111111111111110011000 3
b11111111111111111111111110000000 3!
b11111111111111111111111110011000 4
b11100 5!
16
b11111111111111111111111110000000 6!
17
b11000 7!
b1111100 :!
b10 =!
b11100 J
b110 K
b0 N
b111 O
b11111111111111111111111110000000 P
b11111000000000000000001110010011 S
b11000 W
b11111111111111111111111110000000 Z
b11111111111111111111111110000000 \
b1111100 ~

#80000
0!
0%

#85000
1!
b111 $
b1 $!
1%
1&!
b11100 '
b11100 (
b100000 )
b10001000001000010100110011 *
b100010 +
b11111111111111111111111111111110 +!
b11111111111111111111111111111001 ,
b101 ,!
b101 -
b101 .
b11111111111111111111111111111001 /
b11111111111111111111111111111110 0
b11111111111111111111111111111110 2
b111110 3
b11111111111111111111111111111110 3!
b111110 4
b100000 5!
16
b100010 6!
07
b11100 7!
b110011 8!
b1 :!
1<!
b10 =!
1>!
1C
1F
1H
b11100 J
b111 K
0L
b1 M
b10 N
b1010 O
b11111111111111111111111111111110 P
b10001000001000010100110011 S
b110011 T
b11111111111111111111111111111001 V
b11100 W
0X
b101 Y
b100010 Z
b11111111111111111111111111111001 [
b101 \
1a
b11111111111111111111111111111001 b
b101 c
b1 f
b111 r
b101 s
b111 y
b11111111111111111111111111111001 z
b110011 |
b1 ~

#90000
0!
0%

#95000
1!
1"!
b1 #!
b1000 $
1%
b1010 '!
b0 +!
b0 0
b0 2
b0 3!
b1010 5
b1010 ;!
0C
1E
b1010 G
b0 P
b1010 ]
1`
0a
b1 e
b10 f
b111 g
b101 h
1m
b11111111111111111111111111111001 n
b101 o
0t
1u

#100000
0!
0%

#105000
1!
b1001 $
1%
b11111111111111111111111111111001 B
b11111111111111111111111111111001 ^
b10 e
b11 f
b111 i
b1111111111111111111111111111111111111111111111111111111111111001 w
b1111111111111111111111111111111111111111111111111111111111111001 x

#110000
0!
0%

#115000
1!
b1010 $
1%
b11 e
b100 f

#120000
0!
0%

#125000
1!
b1011 $
1%
b11111111111111111111111111011101 B
b11111111111111111111111111011101 ^
b100 e
b101 f
b100011 i
b1111111111111111111111111111111111111111111111111111111111011101 w
b1111111111111111111111111111111111111111111111111111111111011101 x

#130000
0!
0%

#135000
1!
b1100 $
1%
b101 e
b110 f

#140000
0!
0%

#145000
1!
b1101 $
1%
b110 e
b111 f

#150000
0!
0%

#155000
1!
b1110 $
1%
b111 e
b1000 f

#160000
0!
0%

#165000
1!
b1111 $
1%
b1000 e
b1001 f

#170000
0!
0%

#175000
1!
b10000 $
1%
b1001 e
b1010 f

#180000
0!
0%

#185000
1!
b10001 $
1%
b1010 e
b1011 f

#190000
0!
0%

#195000
1!
b10010 $
1%
b1011 e
b1100 f

#200000
0!
0%

#205000
1!
b10011 $
1%
b1100 e
b1101 f

#210000
0!
0%

#215000
1!
b10100 $
1%
b1101 e
b1110 f

#220000
0!
0%

#225000
1!
b10101 $
1%
b1110 e
b1111 f

#230000
0!
0%

#235000
1!
b10110 $
1%
b1111 e
b10000 f

#240000
0!
0%

#245000
1!
b10111 $
1%
b10000 e
b10001 f

#250000
0!
0%

#255000
1!
b11000 $
1%
b10001 e
b10010 f

#260000
0!
0%

#265000
1!
b11001 $
1%
b10010 e
b10011 f

#270000
0!
0%

#275000
1!
b11010 $
1%
b10011 e
b10100 f

#280000
0!
0%

#285000
1!
b11011 $
1%
b10100 e
b10101 f

#290000
0!
0%

#295000
1!
b11100 $
1%
b10101 e
b10110 f

#300000
0!
0%

#305000
1!
b11101 $
1%
b10110 e
b10111 f

#310000
0!
0%

#315000
1!
b11110 $
1%
b10111 e
b11000 f

#320000
0!
0%

#325000
1!
b11111 $
1%
b11000 e
b11001 f

#330000
0!
0%

#335000
1!
b100000 $
1%
b11001 e
b11010 f

#340000
0!
0%

#345000
1!
b100001 $
1%
b11010 e
b11011 f

#350000
0!
0%

#355000
1!
b100010 $
1%
b11011 e
b11100 f

#360000
0!
0%

#365000
1!
b100011 $
1%
b11100 e
b11101 f

#370000
0!
0%

#375000
1!
b100100 $
1%
b11101 e
b11110 f

#380000
0!
0%

#385000
1!
b100101 $
1%
b11110 e
b11111 f

#390000
0!
0%

#395000
1!
b100110 $
1%
b11111 e
b100000 f

#400000
0!
0%

#405000
1!
b100111 $
1%
b100000 e
b100001 f

#410000
0!
0%

#415000
1!
1!!
0"!
b101000 $
b10 $!
1%
b11111111111111111111111111011101 +!
b11111111111111111111111111011101 0
b11111111111111111111111111011101 2
b11111111111111111111111111011101 3!
1D
0E
b11111111111111111111111111011101 P
1_
b100001 e
b0 f

#420000
0!
0%

#425000
1!
0!!
b10 #!
b101001 $
b0 $!
1%
1%!
b100000 (
0D
0F
1I
b100000 J
1L
b0 e

#430000
0!
0%

#435000
1!
b0 #!
b101010 $
b1 $!
1%
0%!
b100000 '
b100000 (
b100100 )
b10001100001000010110110011 *
b100011 +
b0 +!
b11111111111111111111111111111111 ,!
b11111111111111111111111111111111 -
b11111111111111111111111111111111 .
b0 0
b0 2
b1000011 3
b0 3!
b1000011 4
b100100 5!
b100011 6!
b100000 7!
1C
1F
0I
b100000 J
b1000 K
0L
b11 N
b1011 O
b0 P
b10001100001000010110110011 S
b100000 W
b11111111111111111111111111111111 Y
b100011 Z
b11111111111111111111111111111111 \
0_
1a
b11111111111111111111111111111111 c
b1 f
b1 s
b1 y
b11111111111111111111111111111111 z

#440000
0!
0%

#445000
1!
1"!
b1 #!
b101011 $
1%
b0 B
0C
1E
b0 ^
0a
b1 e
b10 f
b1 h
b0 i
0m
b11111111111111111111111111111111 o
1v
b0 w
b0 x

#450000
0!
0%

#455000
1!
b101100 $
1%
b111 B
b111 ^
b10 e
b11 f
b111 i
b111 w
b111 x

#460000
0!
0%

#465000
1!
b101101 $
1%
b11 e
b100 f

#470000
0!
0%

#475000
1!
b101110 $
1%
b100 e
b101 f

#480000
0!
0%

#485000
1!
b101111 $
1%
b101 e
b110 f

#490000
0!
0%

#495000
1!
b110000 $
1%
b110 e
b111 f

#500000
0!
0%

#505000
1!
b110001 $
1%
b111 e
b1000 f

#510000
0!
0%

#515000
1!
b110010 $
1%
b1000 e
b1001 f

#520000
0!
0%

#525000
1!
b110011 $
1%
b1001 e
b1010 f

#530000
0!
0%

#535000
1!
b110100 $
1%
b1010 e
b1011 f

#540000
0!
0%

#545000
1!
b110101 $
1%
b1011 e
b1100 f

#550000
0!
0%

#555000
1!
b110110 $
1%
b1100 e
b1101 f

#560000
0!
0%

#565000
1!
b110111 $
1%
b1101 e
b1110 f

#570000
0!
0%

#575000
1!
b111000 $
1%
b1110 e
b1111 f

#580000
0!
0%

#585000
1!
b111001 $
1%
b1111 e
b10000 f

#590000
0!
0%

#595000
1!
b111010 $
1%
b10000 e
b10001 f

#600000
0!
0%

#605000
1!
b111011 $
1%
b10001 e
b10010 f

#610000
0!
0%

#615000
1!
b111100 $
1%
b10010 e
b10011 f

#620000
0!
0%

#625000
1!
b111101 $
1%
b10011 e
b10100 f

#630000
0!
0%

#635000
1!
b111110 $
1%
b10100 e
b10101 f

#640000
0!
0%

#645000
1!
b111111 $
1%
b10101 e
b10110 f

#650000
0!
0%

#655000
1!
b1000000 $
1%
b10110 e
b10111 f

#660000
0!
0%

#665000
1!
b1000001 $
1%
b10111 e
b11000 f

#670000
0!
0%

#675000
1!
b1000010 $
1%
b11000 e
b11001 f

#680000
0!
0%

#685000
1!
b1000011 $
1%
b11001 e
b11010 f

#690000
0!
0%

#695000
1!
b1000100 $
1%
b11010 e
b11011 f

#700000
0!
0%

#705000
1!
b1000101 $
1%
b11011 e
b11100 f

#710000
0!
0%

#715000
1!
b1000110 $
1%
b11100 e
b11101 f

#720000
0!
0%

#725000
1!
b1000111 $
1%
b11101 e
b11110 f

#730000
0!
0%

#735000
1!
b1001000 $
1%
b11110 e
b11111 f

#740000
0!
0%

#745000
1!
b1001001 $
1%
b11111 e
b100000 f

#750000
0!
0%

#755000
1!
b1001010 $
1%
b100000 e
b100001 f

#760000
0!
0%

#765000
1!
1!!
0"!
b1001011 $
b10 $!
1%
b111 +!
b111 0
b111 2
b111 3!
1D
0E
b111 P
1_
b100001 e
b0 f

#770000
0!
0%

#775000
1!
0!!
b10 #!
b1001100 $
b0 $!
1%
1%!
b100100 (
0D
0F
1I
b100100 J
1L
b0 e

#780000
0!
0%

#785000
1!
b0 #!
b1001101 $
b1 $!
1%
0%!
b100100 '
b100100 (
b101000 )
b10011000100000011000110011 *
b100110 +
b0 +!
b1 ,
b1111111 ,!
b1111111 -
b1111111 .
b1 /
b0 0
b0 2
b1001010 3
b0 3!
b1001010 4
b101000 5!
b100110 6!
b100100 7!
1C
1F
0I
b100100 J
b1001 K
0L
b100 M
b110 N
b1100 O
b0 P
b10011000100000011000110011 S
b1 V
b100100 W
b1111111 Y
b100110 Z
b1 [
b1111111 \
0_
1a
b1 b
b1111111 c
b1 f
b1 r
b1111111 s
b1 y
b1 z

#790000
0!
0%

#795000
1!
1"!
b1 #!
b1001110 $
1%
b0 B
0C
1E
b0 ^
0a
b1 e
b10 f
b1 g
b1111111 h
b0 i
b1 n
b1111111 o
0u
0v
b0 w
b0 x

#800000
0!
0%

#805000
1!
b1001111 $
1%
b1 B
b1 ^
b10 e
b11 f
b1 i
b1 w
b1 x

#810000
0!
0%

#815000
1!
b1010000 $
1%
b11 B
b11 ^
b11 e
b100 f
b11 i
b11 w
b11 x

#820000
0!
0%

#825000
1!
b1010001 $
1%
b111 B
b111 ^
b100 e
b101 f
b111 i
b111 w
b111 x

#830000
0!
0%

#835000
1!
b1010010 $
1%
b1111 B
b1111 ^
b101 e
b110 f
b1111 i
b1111 w
b1111 x

#840000
0!
0%

#845000
1!
b1010011 $
1%
b11111 B
b11111 ^
b110 e
b111 f
b11111 i
b11111 w
b11111 x

#850000
0!
0%

#855000
1!
b1010100 $
1%
b111111 B
b111111 ^
b111 e
b1000 f
b111111 i
b111111 w
b111111 x

#860000
0!
0%

#865000
1!
b1010101 $
1%
b1111111 B
b1111111 ^
b1000 e
b1001 f
b1111111 i
b1111111 w
b1111111 x

#870000
0!
0%

#875000
1!
b1010110 $
1%
b1001 e
b1010 f

#880000
0!
0%

#885000
1!
b1010111 $
1%
b1010 e
b1011 f

#890000
0!
0%

#895000
1!
b1011000 $
1%
b1011 e
b1100 f

#900000
0!
0%

#905000
1!
b1011001 $
1%
b1100 e
b1101 f

#910000
0!
0%

#915000
1!
b1011010 $
1%
b1101 e
b1110 f

#920000
0!
0%

#925000
1!
b1011011 $
1%
b1110 e
b1111 f

#930000
0!
0%

#935000
1!
b1011100 $
1%
b1111 e
b10000 f

#940000
0!
0%

#945000
1!
b1011101 $
1%
b10000 e
b10001 f

#950000
0!
0%

#955000
1!
b1011110 $
1%
b10001 e
b10010 f

#960000
0!
0%

#965000
1!
b1011111 $
1%
b10010 e
b10011 f

#970000
0!
0%

#975000
1!
b1100000 $
1%
b10011 e
b10100 f

#980000
0!
0%

#985000
1!
b1100001 $
1%
b10100 e
b10101 f

#990000
0!
0%

#995000
1!
b1100010 $
1%
b10101 e
b10110 f

#1000000
0!
0%

#1005000
1!
b1100011 $
1%
b10110 e
b10111 f

#1010000
0!
0%

#1015000
1!
b1100100 $
1%
b10111 e
b11000 f

#1020000
0!
0%

#1025000
1!
b1100101 $
1%
b11000 e
b11001 f

#1030000
0!
0%

#1035000
1!
b1100110 $
1%
b11001 e
b11010 f

#1040000
0!
0%

#1045000
1!
b1100111 $
1%
b11010 e
b11011 f

#1050000
0!
0%

#1055000
1!
b1101000 $
1%
b11011 e
b11100 f

#1060000
0!
0%

#1065000
1!
b1101001 $
1%
b11100 e
b11101 f

#1070000
0!
0%

#1075000
1!
b1101010 $
1%
b11101 e
b11110 f

#1080000
0!
0%

#1085000
1!
b1101011 $
1%
b11110 e
b11111 f

#1090000
0!
0%

#1095000
1!
b1101100 $
1%
b11111 e
b100000 f

#1100000
0!
0%

#1105000
1!
b1101101 $
1%
b100000 e
b100001 f

#1110000
0!
0%

#1115000
1!
1!!
0"!
b1101110 $
b10 $!
1%
b1111111 +!
b1111111 0
b1111111 2
b1111111 3!
1D
0E
b1111111 P
1_
b100001 e
b0 f

#1120000
0!
0%

#1125000
1!
0!!
b10 #!
b1101111 $
b0 $!
1%
1%!
b101000 (
0D
0F
1I
b101000 J
1L
b0 e

#1130000
0!
0%

#1135000
1!
b0 #!
b1110000 $
b1 $!
1%
0%!
b101000 '
b101000 (
b101100 )
b10011000111000011010110011 *
b0 +!
b11111111111111111111111110000000 ,
b11111111111111111111111110000000 /
b0 0
b0 2
b1001110 3
b0 3!
b1001110 4
b101100 5!
b101000 7!
1C
1F
0I
b101000 J
b1010 K
0L
b111 M
b1101 O
b0 P
b10011000111000011010110011 S
b11111111111111111111111110000000 V
b101000 W
b11111111111111111111111110000000 [
0_
1a
b11111111111111111111111110000000 b
b1 f
b10000000 r
b10000000 y
b11111111111111111111111110000000 z

#1140000
0!
0%

#1145000
1!
1"!
b1 #!
b1110001 $
1%
b0 B
0C
1E
b0 ^
0a
b1 e
b10 f
b10000000 g
b0 i
1m
b11111111111111111111111110000000 n
1u
b0 w
b0 x

#1150000
0!
0%

#1155000
1!
b1110010 $
1%
b11111111111111111111111110000000 B
b11111111111111111111111110000000 ^
b10 e
b11 f
b10000000 i
b1111111111111111111111111111111111111111111111111111111110000000 w
b1111111111111111111111111111111111111111111111111111111110000000 x

#1160000
0!
0%

#1165000
1!
b1110011 $
1%
b11111111111111111111111010000000 B
b11111111111111111111111010000000 ^
b11 e
b100 f
b110000000 i
b1111111111111111111111111111111111111111111111111111111010000000 w
b1111111111111111111111111111111111111111111111111111111010000000 x

#1170000
0!
0%

#1175000
1!
b1110100 $
1%
b11111111111111111111110010000000 B
b11111111111111111111110010000000 ^
b100 e
b101 f
b1110000000 i
b1111111111111111111111111111111111111111111111111111110010000000 w
b1111111111111111111111111111111111111111111111111111110010000000 x

#1180000
0!
0%

#1185000
1!
b1110101 $
1%
b11111111111111111111100010000000 B
b11111111111111111111100010000000 ^
b101 e
b110 f
b11110000000 i
b1111111111111111111111111111111111111111111111111111100010000000 w
b1111111111111111111111111111111111111111111111111111100010000000 x

#1190000
0!
0%

#1195000
1!
b1110110 $
1%
b11111111111111111111000010000000 B
b11111111111111111111000010000000 ^
b110 e
b111 f
b111110000000 i
b1111111111111111111111111111111111111111111111111111000010000000 w
b1111111111111111111111111111111111111111111111111111000010000000 x

#1200000
0!
0%

#1205000
1!
b1110111 $
1%
b11111111111111111110000010000000 B
b11111111111111111110000010000000 ^
b111 e
b1000 f
b1111110000000 i
b1111111111111111111111111111111111111111111111111110000010000000 w
b1111111111111111111111111111111111111111111111111110000010000000 x

#1210000
0!
0%

#1215000
1!
b1111000 $
1%
b11111111111111111100000010000000 B
b11111111111111111100000010000000 ^
b1000 e
b1001 f
b11111110000000 i
b1111111111111111111111111111111111111111111111111100000010000000 w
b1111111111111111111111111111111111111111111111111100000010000000 x

#1220000
0!
0%

#1225000
1!
b1111001 $
1%
b1001 e
b1010 f

#1230000
0!
0%

#1235000
1!
b1111010 $
1%
b1010 e
b1011 f

#1240000
0!
0%

#1245000
1!
b1111011 $
1%
b1011 e
b1100 f

#1250000
0!
0%

#1255000
1!
b1111100 $
1%
b1100 e
b1101 f

#1260000
0!
0%

#1265000
1!
b1111101 $
1%
b1101 e
b1110 f

#1270000
0!
0%

#1275000
1!
b1111110 $
1%
b1110 e
b1111 f

#1280000
0!
0%

#1285000
1!
b1111111 $
1%
b1111 e
b10000 f

#1290000
0!
0%

#1295000
1!
b10000000 $
1%
b10000 e
b10001 f

#1300000
0!
0%

#1305000
1!
b10000001 $
1%
b10001 e
b10010 f

#1310000
0!
0%

#1315000
1!
b10000010 $
1%
b10010 e
b10011 f

#1320000
0!
0%

#1325000
1!
b10000011 $
1%
b10011 e
b10100 f

#1330000
0!
0%

#1335000
1!
b10000100 $
1%
b10100 e
b10101 f

#1340000
0!
0%

#1345000
1!
b10000101 $
1%
b10101 e
b10110 f

#1350000
0!
0%

#1355000
1!
b10000110 $
1%
b10110 e
b10111 f

#1360000
0!
0%

#1365000
1!
b10000111 $
1%
b10111 e
b11000 f

#1370000
0!
0%

#1375000
1!
b10001000 $
1%
b11000 e
b11001 f

#1380000
0!
0%

#1385000
1!
b10001001 $
1%
b11001 e
b11010 f

#1390000
0!
0%

#1395000
1!
b10001010 $
1%
b11010 e
b11011 f

#1400000
0!
0%

#1405000
1!
b10001011 $
1%
b11011 e
b11100 f

#1410000
0!
0%

#1415000
1!
b10001100 $
1%
b11100 e
b11101 f

#1420000
0!
0%

#1425000
1!
b10001101 $
1%
b11101 e
b11110 f

#1430000
0!
0%

#1435000
1!
b10001110 $
1%
b11110 e
b11111 f

#1440000
0!
0%

#1445000
1!
b10001111 $
1%
b11111 e
b100000 f

#1450000
0!
0%

#1455000
1!
b10010000 $
1%
b100000 e
b100001 f

#1460000
0!
0%

#1465000
1!
1!!
0"!
b10010001 $
b10 $!
1%
b11111111111111111100000010000000 +!
b11111111111111111100000010000000 0
b11111111111111111100000010000000 2
b11111111111111111100000010000000 3!
1D
0E
b11111111111111111100000010000000 P
1_
b100001 e
b0 f

#1470000
0!
0%

#1475000
1!
0!!
b10 #!
b10010010 $
b0 $!
1%
1%!
b101100 (
0D
0F
1I
b101100 J
1L
b0 e

#1480000
0!
0%

