Single-Cycle RV32I with Multi-Cycle Multiplier.sim/sim_1/behav/xsim/simulation.vcd
$date
   Fri Dec 19 23:30:23 2025
$end

$version
  2024.1.2
  $dumpfile ("simulation.vcd") 
$end

$timescale
  1ps
$end

$scope module tb_top $end
$var reg 1 ! clk $end
$var reg 1 " reset $end
$var integer 32 # log_file [31:0] $end
$var integer 32 $ cycle_count [31:0] $end
$scope module uut $end
$var wire 1 % clk $end
$var wire 1 & reset $end
$var reg 32 ' pc_address [31:0] $end
$var reg 32 ( pc_next [31:0] $end
$var reg 32 ) pc_plus_4 [31:0] $end
$var reg 32 * instruction [31:0] $end
$var reg 32 + imm_out [31:0] $end
$var reg 32 , data1 [31:0] $end
$var reg 32 - data2 [31:0] $end
$var reg 32 . alu_operand2 [31:0] $end
$var reg 32 / alu_operand_a [31:0] $end
$var reg 32 0 alu_result [31:0] $end
$var reg 32 1 mem_read_data [31:0] $end
$var reg 32 2 reg_write_data [31:0] $end
$var reg 32 3 branch_target [31:0] $end
$var reg 32 4 jump_target [31:0] $end
$var reg 4 5 alu_control [3:0] $end
$var reg 1 6 reg_write $end
$var reg 1 7 alu_src $end
$var reg 1 8 mem_read $end
$var reg 1 9 mem_write $end
$var reg 1 : mem_to_reg $end
$var reg 1 ; branch $end
$var reg 1 < zero $end
$var reg 1 = jump $end
$var reg 1 > jalr $end
$var reg 1 ? lui $end
$var reg 1 @ auipc $end
$var reg 1 A branch_taken $end
$var reg 32 B mult_result [31:0] $end
$var reg 1 C mult_start $end
$var reg 1 D mult_done $end
$var reg 1 E mult_busy $end
$var reg 1 F stall_cpu $end
$var reg 4 G mult_alu_control [3:0] $end
$var reg 1 H mult_instruction $end
$var reg 1 I mult_write_pending $end
$scope module pc $end
$var wire 1 % clk $end
$var wire 1 & reset $end
$var wire 32 J pc_next [31:0] $end
$var reg 32 ' pc_address [31:0] $end
$upscope $end
$scope module imem $end
$var wire 8 K address [7:0] $end
$var reg 32 * instruction [31:0] $end
$upscope $end
$scope module reg_file $end
$var wire 1 % clk $end
$var wire 1 & reset $end
$var wire 1 L write_enable $end
$var wire 5 M rs1 [4:0] $end
$var wire 5 N rs2 [4:0] $end
$var wire 5 O rd [4:0] $end
$var wire 32 P write_data [31:0] $end
$var reg 32 , out_rs1 [31:0] $end
$var reg 32 - out_rs2 [31:0] $end
$scope begin Block19_3 $end
$var reg 32 Q i [31:0] $end
$upscope $end
$scope begin Block26_5 $end
$var reg 32 R i [31:0] $end
$upscope $end
$upscope $end
$scope module imm_gen $end
$var wire 32 S instruction [31:0] $end
$var reg 32 + imm_out [31:0] $end
$var reg 7 T opcode [6:0] $end
$upscope $end
$scope module alu_a_mux $end
$var wire 1 U sel $end
$var wire 32 V in0 [31:0] $end
$var wire 32 W in1 [31:0] $end
$var reg 32 / out [31:0] $end
$upscope $end
$scope module alu_src_mux $end
$var wire 1 X sel $end
$var wire 32 Y in0 [31:0] $end
$var wire 32 Z in1 [31:0] $end
$var reg 32 . out [31:0] $end
$upscope $end
$scope module alu $end
$var wire 32 [ a [31:0] $end
$var wire 32 \ b [31:0] $end
$var wire 4 ] alu_control [3:0] $end
$var wire 32 ^ mult_result [31:0] $end
$var wire 1 _ mult_done $end
$var reg 32 0 result [31:0] $end
$var reg 1 < zero $end
$var reg 1 ` is_multiply_op $end
$upscope $end
$scope module multiplier $end
$var wire 1 % clk $end
$var wire 1 & reset $end
$var wire 1 a start $end
$var wire 32 b a [31:0] $end
$var wire 32 c b [31:0] $end
$var wire 3 d funct3 [2:0] $end
$var reg 32 B result [31:0] $end
$var reg 1 D done $end
$var reg 1 E busy $end
$var reg 6 e current_state $end
$var reg 6 f next_state $end
$var reg 32 g multiplicand [31:0] $end
$var reg 32 h multiplier [31:0] $end
$var reg 64 i product [63:0] $end
$var reg 3 j funct3_reg [2:0] $end
$var reg 1 k sign_a $end
$var reg 1 l sign_b $end
$var reg 1 m result_sign $end
$var reg 32 n a_reg [31:0] $end
$var reg 32 o b_reg [31:0] $end
$var reg 1 p sign_a_in $end
$var reg 1 q sign_b_in $end
$var reg 32 r abs_a_in [31:0] $end
$var reg 32 s abs_b_in [31:0] $end
$var reg 1 t special_zero_case $end
$var reg 1 u a_neg $end
$var reg 1 v b_neg $end
$var reg 64 w signed_product [63:0] $end
$var reg 64 x final_product [63:0] $end
$scope function get_abs $end
$var reg 32 y get_abs [31:0] $end
$var reg 32 z val [31:0] $end
$var reg 1 { is_signed $end
$upscope $end
$upscope $end
$scope module mult_ctrl $end
$var wire 1 % clk $end
$var wire 1 & reset $end
$var wire 7 | opcode [6:0] $end
$var wire 3 } funct3 [2:0] $end
$var wire 7 ~ funct7 [6:0] $end
$var wire 1 !! mult_done $end
$var wire 1 "! mult_busy $end
$var reg 1 C mult_start $end
$var reg 1 F stall_cpu $end
$var reg 4 G alu_control_out [3:0] $end
$var reg 1 I mult_write_pending $end
$var reg 2 #! current_state [1:0] $end
$var reg 2 $! next_state [1:0] $end
$var reg 1 %! pending_write $end
$var reg 1 &! mult_detected $end
$var reg 4 '! alu_control_reg [3:0] $end
$upscope $end
$scope module dmem $end
$var wire 1 % clk $end
$var wire 1 (! mem_read $end
$var wire 1 )! mem_write $end
$var wire 3 *! funct3 [2:0] $end
$var wire 32 +! address [31:0] $end
$var wire 32 ,! write_data [31:0] $end
$var reg 32 1 read_data [31:0] $end
$scope begin Block13_18 $end
$var reg 32 -! i [31:0] $end
$upscope $end
$upscope $end
$scope module wb_mux $end
$var wire 1 .! mem_to_reg $end
$var wire 1 /! jump $end
$var wire 1 0! jalr $end
$var wire 1 1! lui $end
$var wire 1 2! auipc $end
$var wire 32 3! alu_result [31:0] $end
$var wire 32 4! mem_data [31:0] $end
$var wire 32 5! pc_plus_4 [31:0] $end
$var wire 32 6! imm_out [31:0] $end
$var wire 32 7! pc_address [31:0] $end
$var reg 32 2 write_data [31:0] $end
$upscope $end
$scope module control_unit $end
$var wire 7 8! opcode [6:0] $end
$var wire 3 9! funct3 [2:0] $end
$var wire 7 :! funct7 [6:0] $end
$var wire 4 ;! mult_alu_control [3:0] $end
$var wire 1 <! mult_instruction $end
$var reg 1 6 reg_write $end
$var reg 1 7 alu_src $end
$var reg 1 8 mem_read $end
$var reg 1 9 mem_write $end
$var reg 1 : mem_to_reg $end
$var reg 1 ; branch $end
$var reg 1 = jump $end
$var reg 1 > jalr $end
$var reg 1 ? lui $end
$var reg 1 @ auipc $end
$var reg 4 5 alu_control [3:0] $end
$var reg 2 =! alu_op [1:0] $end
$var reg 1 >! mult_instr_detected $end
$scope module main_ctrl $end
$var wire 7 8! opcode [6:0] $end
$var wire 7 :! funct7 [6:0] $end
$var reg 1 6 reg_write $end
$var reg 1 7 alu_src $end
$var reg 1 8 mem_read $end
$var reg 1 9 mem_write $end
$var reg 1 : mem_to_reg $end
$var reg 1 ; branch $end
$var reg 1 = jump $end
$var reg 1 > jalr $end
$var reg 1 ? lui $end
$var reg 1 @ auipc $end
$var reg 2 =! alu_op [1:0] $end
$var reg 1 >! mult_instruction $end
$upscope $end
$scope module alu_ctrl $end
$var wire 2 ?! alu_op [1:0] $end
$var wire 3 9! funct3 [2:0] $end
$var wire 7 :! funct7 [6:0] $end
$var wire 4 ;! mult_alu_control [3:0] $end
$var wire 1 <! mult_instruction $end
$var wire 7 8! opcode [6:0] $end
$var reg 4 5 alu_control [3:0] $end
$upscope $end
$upscope $end
$upscope $end
$scope begin Block52_27 $end
$var reg 32 @! i [31:0] $end
$upscope $end
$upscope $end
$enddefinitions $end

#0
$dumpvars
0!
0!!
1"
0"!
b11111111111111111011000111100000 #
b0 #!
b0 $
b0 $!
0%
0%!
1&
0&!
b0 '
b10 '!
b100 (
0(!
b100 )
0)!
b1100000000000110010011 *
b0 *!
b11 +
b11 +!
b0 ,
b0 ,!
b0 -
b10000000000 -!
b11 .
0.!
b0 /
0/!
b11 0
00!
b0 1
01!
b11 2
02!
b11 3
b11 3!
b11 4
b0 4!
b10 5
b100 5!
16
b11 6!
17
b0 7!
08
b10011 8!
09
b0 9!
0:
b0 :!
0;
b10 ;!
0<
0<!
0=
b10 =!
0>
0>!
0?
b10 ?!
0@
b0 @!
0A
b0 B
0C
0D
0E
0F
b10 G
0H
0I
b100 J
b0 K
1L
b0 M
b11 N
b11 O
b11 P
b100000 Q
b100000 R
b1100000000000110010011 S
b10011 T
0U
b0 V
b0 W
1X
b0 Y
b11 Z
b0 [
b11 \
b10 ]
b0 ^
0_
0`
0a
b0 b
b0 c
b0 d
b0 e
b0 f
b0 g
b0 h
b0 i
b0 j
1k
1l
0m
b0 n
b0 o
1p
1q
b0 r
b0 s
1t
0u
0v
b0 w
b0 x
b0 y
b0 z
1{
b10011 |
b0 }
b0 ~
$end

#5000
1!
1%
b100000 R

#10000
0!
0%

#15000
1!
1%
b100000 R

#20000
0!
0"
0%
0&

#25000
1!
b1 $
1%
b100 '
b1000 (
b1000 )
b11111111111111111111111111111111 *
b111 *!
b11111111111111111111111111111111 +
b0 +!
b0 .
b0 0
b0 2
b11 3
b0 3!
b11 4
b1000 5!
06
b11111111111111111111111111111111 6!
07
b100 7!
b1111111 8!
b111 9!
b1111111 :!
1<
b0 =!
b0 ?!
b1000 J
b1 K
0L
b11111 M
b11111 N
b11111 O
b0 P
b11111111111111111111111111111111 S
b1111111 T
b100 W
0X
b11111111111111111111111111111111 Z
b0 \
b111 d
b1111111 |
b111 }
b1111111 ~

#30000
0!
0%

#35000
1!
b10 $
1%
b1000 '
b1100 (
b1100 )
b1100000000001000010011 *
b0 *!
b11 +
b11 +!
b11 ,!
b11 -
b11 .
b11 0
b11 2
b1011 3
b11 3!
b1011 4
b1100 5!
16
b11 6!
17
b1000 7!
b10011 8!
b0 9!
b0 :!
0<
b10 =!
b10 ?!
b1100 J
b10 K
1L
b0 M
b11 N
b100 O
b11 P
b1100000000001000010011 S
b10011 T
b1000 W
1X
b11 Y
b11 Z
b11 \
b11 c
b0 d
b11 s
b11 y
b11 z
b10011 |
b0 }
b0 ~

#40000
0!
0%

#45000
1!
b11 $
1%
b1100 '
b10000 (
b10000 )
b11111111111111111111111111111111 *
b111 *!
b11111111111111111111111111111111 +
b0 +!
b0 ,!
b0 -
b0 .
b0 0
b0 2
b1011 3
b0 3!
b1011 4
b10000 5!
06
b11111111111111111111111111111111 6!
07
b1100 7!
b1111111 8!
b111 9!
b1111111 :!
1<
b0 =!
b0 ?!
b10000 J
b11 K
0L
b11111 M
b11111 N
b11111 O
b0 P
b11111111111111111111111111111111 S
b1111111 T
b1100 W
0X
b0 Y
b11111111111111111111111111111111 Z
b0 \
b0 c
b111 d
b0 s
b0 y
b0 z
b1111111 |
b111 }
b1111111 ~

#50000
0!
0%

#55000
1!
b100 $
b1 $!
1%
1&!
b10000 '
b10000 (
b10100 )
b10001000001001001010110011 *
b1 *!
b100010 +
b110010 3
b110010 4
b10100 5!
16
b100010 6!
b10000 7!
b110011 8!
b1 9!
b1 :!
1<!
b10 =!
1>!
b10 ?!
1C
1F
1H
b10000 J
b100 K
b1 M
b10 N
b101 O
b10001000001001001010110011 S
b110011 T
b10000 W
b100010 Z
1a
b1 d
b1 f
b110011 |
b1 }
b1 ~

#60000
0!
0%

#65000
1!
1"!
b1 #!
b101 $
1%
b1011 '!
b1011 5
b1011 ;!
0<
0C
1E
b1011 G
b1011 ]
1`
0a
b1 e
b10 f
b1 j

#70000
0!
0%

#75000
1!
b110 $
1%
b10 e
b11 f

#80000
0!
0%

#85000
1!
b111 $
1%
b11 e
b100 f

#90000
0!
0%

#95000
1!
b1000 $
1%
b100 e
b101 f

#100000
0!
0%

#105000
1!
b1001 $
1%
b101 e
b110 f

#110000
0!
0%

#115000
1!
b1010 $
1%
b110 e
b111 f

#120000
0!
0%

#125000
1!
b1011 $
1%
b111 e
b1000 f

#130000
0!
0%

#135000
1!
b1100 $
1%
b1000 e
b1001 f

#140000
0!
0%

#145000
1!
b1101 $
1%
b1001 e
b1010 f

#150000
0!
0%

#155000
1!
b1110 $
1%
b1010 e
b1011 f

#160000
0!
0%

#165000
1!
b1111 $
1%
b1011 e
b1100 f

#170000
0!
0%

#175000
1!
b10000 $
1%
b1100 e
b1101 f

#180000
0!
0%

#185000
1!
b10001 $
1%
b1101 e
b1110 f

#190000
0!
0%

#195000
1!
b10010 $
1%
b1110 e
b1111 f

#200000
0!
0%

#205000
1!
b10011 $
1%
b1111 e
b10000 f

#210000
0!
0%

#215000
1!
b10100 $
1%
b10000 e
b10001 f

#220000
0!
0%

#225000
1!
b10101 $
1%
b10001 e
b10010 f

#230000
0!
0%

#235000
1!
b10110 $
1%
b10010 e
b10011 f

#240000
0!
0%

#245000
1!
b10111 $
1%
b10011 e
b10100 f

#250000
0!
0%

#255000
1!
b11000 $
1%
b10100 e
b10101 f

#260000
0!
0%

#265000
1!
b11001 $
1%
b10101 e
b10110 f

#270000
0!
0%

#275000
1!
b11010 $
1%
b10110 e
b10111 f

#280000
0!
0%

#285000
1!
b11011 $
1%
b10111 e
b11000 f

#290000
0!
0%

#295000
1!
b11100 $
1%
b11000 e
b11001 f

#300000
0!
0%

#305000
1!
b11101 $
1%
b11001 e
b11010 f

#310000
0!
0%

#315000
1!
b11110 $
1%
b11010 e
b11011 f

#320000
0!
0%

#325000
1!
b11111 $
1%
b11011 e
b11100 f

#330000
0!
0%

#335000
1!
b100000 $
1%
b11100 e
b11101 f

#340000
0!
0%

#345000
1!
b100001 $
1%
b11101 e
b11110 f

#350000
0!
0%

#355000
1!
b100010 $
1%
b11110 e
b11111 f

#360000
0!
0%

#365000
1!
b100011 $
1%
b11111 e
b100000 f

#370000
0!
0%

#375000
1!
b100100 $
1%
b100000 e
b100001 f

#380000
0!
0%

#385000
1!
1!!
0"!
b100101 $
b10 $!
1%
1D
0E
1_
b100001 e
b0 f

#390000
0!
0%

#395000
1!
0!!
b10 #!
b100110 $
b0 $!
1%
1%!
b10100 (
0D
0F
1I
b10100 J
1L
0_
b0 e

#400000
0!
0%

#405000
1!
b0 #!
b100111 $
1%
0%!
0&!
b10100 '
b11000 (
b11000 )
b10011 *
b0 *!
b0 +
b10100 3
b10100 4
b10 5
b11000 5!
16
b0 6!
17
b10100 7!
b10011 8!
b0 9!
b0 :!
b10 ;!
1<
0<!
b10 =!
0>!
0C
0F
b10 G
0H
0I
b11000 J
b101 K
1L
b0 M
b0 N
b0 O
b10011 S
b10011 T
b10100 W
1X
b0 Z
b10 ]
0`
0a
b0 d
b10011 |
b0 }
b0 ~

#410000
0!
0%

#415000
1!
b101000 $
1%
b11000 '
b11100 (
b11100 )
b11000 3
b11000 4
b11100 5!
b11000 7!
b11100 J
b110 K
b11000 W

#420000
0!
0%

#425000
1!
b101001 $
1%
b11100 '
b11100 (
b100000 )
b1101111 *
1/!
b100000 2
b11100 3
b11100 4
b100000 5!
16
07
b11100 7!
b1101111 8!
1=
b0 =!
b0 ?!
b11100 J
b111 K
b100000 P
b1101111 S
b1101111 T
b11100 W
0X
b1101111 |

#430000
0!
0%

#435000
1!
b101010 $
1%

#440000
0!
0%

#445000
1!
b101011 $
1%

#450000
0!
0%

#455000
1!
b101100 $
1%

#460000
0!
0%

#465000
1!
b101101 $
1%

#470000
0!
0%

#475000
1!
b101110 $
1%

#480000
0!
0%

#485000
1!
b101111 $
1%

#490000
0!
0%

#495000
1!
b110000 $
1%

#500000
0!
0%

#505000
1!
b110001 $
1%

#510000
0!
0%

#515000
1!
b110010 $
1%

#520000
0!
0%

#525000
1!
b110011 $
1%

#530000
0!
0%

#535000
1!
b110100 $
1%

#540000
0!
0%

#545000
1!
b110101 $
1%

#550000
0!
0%

#555000
1!
b110110 $
1%

#560000
0!
0%

#565000
1!
b110111 $
1%

#570000
0!
0%

#575000
1!
b111000 $
1%

#580000
0!
0%

#585000
1!
b111001 $
1%

#590000
0!
0%

#595000
1!
b111010 $
1%

#600000
0!
0%

#605000
1!
b111011 $
1%

#610000
0!
0%

#615000
1!
b111100 $
1%

#620000
0!
0%

#625000
1!
b111101 $
1%

#630000
0!
0%

#635000
1!
b111110 $
1%

#640000
0!
0%

#645000
1!
b111111 $
1%

#650000
0!
0%

#655000
1!
b1000000 $
1%

#660000
0!
0%

#665000
1!
b1000001 $
1%

#670000
0!
0%

#675000
1!
b1000010 $
1%

#680000
0!
0%

#685000
1!
b1000011 $
1%

#690000
0!
0%

#695000
1!
b1000100 $
1%

#700000
0!
0%

#705000
1!
b1000101 $
1%

#710000
0!
0%

#715000
1!
b1000110 $
1%

#720000
0!
0%

#725000
1!
b1000111 $
1%

#730000
0!
0%

#735000
1!
b1001000 $
1%

#740000
0!
0%

#745000
1!
b1001001 $
1%

#750000
0!
0%

#755000
1!
b1001010 $
1%

#760000
0!
0%

#765000
1!
b1001011 $
1%

#770000
0!
0%

#775000
1!
b1001100 $
1%

#780000
0!
0%

#785000
1!
b1001101 $
1%

#790000
0!
0%

#795000
1!
b1001110 $
1%

#800000
0!
0%

#805000
1!
b1001111 $
1%

#810000
0!
0%

#815000
1!
b1010000 $
1%

#820000
0!
0%

#825000
1!
b1010001 $
1%

#830000
0!
0%

#835000
1!
b1010010 $
1%

#840000
0!
0%

#845000
1!
b1010011 $
1%

#850000
0!
0%

#855000
1!
b1010100 $
1%

#860000
0!
0%

#865000
1!
b1010101 $
1%

#870000
0!
0%

#875000
1!
b1010110 $
1%

#880000
0!
0%

#885000
1!
b1010111 $
1%

#890000
0!
0%

#895000
1!
b1011000 $
1%

#900000
0!
0%

#905000
1!
b1011001 $
1%

#910000
0!
0%

#915000
1!
b1011010 $
1%

#920000
0!
0%

#925000
1!
b1011011 $
1%

#930000
0!
0%

#935000
1!
b1011100 $
1%

#940000
0!
0%

#945000
1!
b1011101 $
1%

#950000
0!
0%

#955000
1!
b1011110 $
1%

#960000
0!
0%

#965000
1!
b1011111 $
1%

#970000
0!
0%

#975000
1!
b1100000 $
1%

#980000
0!
0%

#985000
1!
b1100001 $
1%

#990000
0!
0%

#995000
1!
b1100010 $
1%
